<?xml version="1.0" standalone="no"?>
<!DOCTYPE svg PUBLIC "-//W3C//DTD SVG 20010904//EN"
 "http://www.w3.org/TR/2001/REC-SVG-20010904/DTD/svg10.dtd">
<svg version="1.0" xmlns="http://www.w3.org/2000/svg"
 width="512.000000pt" height="512.000000pt" viewBox="0 0 512.000000 512.000000"
 preserveAspectRatio="xMidYMid meet">

<g transform="translate(0.000000,512.000000) scale(0.100000,-0.100000)" stroke="none">
<path fill="#7cffc5" d="M2943 3812 c-191 -192 -255 -224 -573 -291 -206 -43 -324 -78 -402
-117 -220 -111 -190 -310 61 -412 67 -27 95 -28 121 -2 35 35 26 81 -26 146
-36 44 -43 58 -33 65 26 17 143 50 316 89 287 66 405 119 539 243 l74 69 0
-34 c-1 -104 -22 -385 -39 -505 -20 -141 -65 -361 -95 -463 l-16 -55 -188
-112 c-254 -152 -395 -247 -534 -359 -199 -161 -356 -343 -452 -524 -135 -256
-125 -463 25 -560 77 -49 140 -64 244 -57 346 24 670 350 916 922 24 55 75
194 114 310 l71 209 90 66 c127 91 261 206 306 263 32 42 38 56 38 98 0 44 -4
53 -43 94 -39 40 -48 45 -89 45 -55 0 -81 -23 -77 -72 4 -68 0 -76 -76 -138
-41 -34 -75 -57 -75 -52 0 5 13 75 30 156 46 229 73 517 67 716 -7 213 -24
276 -95 353 -47 50 -67 40 -199 -91z m-224 -1714 c-172 -442 -399 -761 -616
-868 -79 -39 -175 -57 -217 -41 -28 11 -29 12 -23 77 6 83 69 215 154 329 77
101 260 279 382 370 91 68 339 233 353 234 3 1 -11 -45 -33 -101z"/>
<path d="M1106 3428 c-58 -16 -111 -74 -126 -139 -21 -95 -29 -238 -30 -491 0
-223 -2 -253 -20 -301 -28 -75 -57 -99 -125 -105 l-55 -4 0 -83 0 -83 55 -4
c64 -5 89 -24 119 -88 19 -41 21 -71 27 -380 10 -441 24 -508 119 -559 31 -16
68 -25 118 -29 l72 -5 0 84 0 84 -53 3 c-31 1 -62 9 -77 20 -52 38 -54 54 -61
397 -4 183 -12 346 -18 380 -15 72 -53 142 -87 157 -13 6 -24 14 -24 18 0 4
11 12 24 18 14 6 36 31 50 55 41 70 56 200 56 494 0 360 11 395 131 409 l59 7
0 72 0 72 -46 7 c-55 7 -57 7 -108 -6z"/>
<path d="M3763 3434 c-9 -4 -13 -31 -13 -85 l0 -79 48 0 c59 0 109 -29 118
-67 3 -15 8 -35 11 -43 4 -8 9 -161 14 -340 6 -291 9 -332 28 -392 16 -49 31
-74 58 -98 l37 -33 -27 -19 c-15 -11 -35 -34 -43 -50 -41 -79 -45 -117 -50
-408 -7 -437 -18 -480 -130 -490 l-59 -5 -3 -82 -3 -83 57 0 c126 0 189 43
223 154 19 62 21 92 21 350 1 319 9 404 45 475 26 52 52 67 130 73 l30 3 0 85
0 85 -56 6 c-69 7 -73 10 -103 62 -35 60 -46 168 -46 457 0 360 -23 456 -122
503 -35 16 -144 30 -165 21z"/>
</g>
</svg>
